Time;eth0in;eth0out;eth1in;eth1out;eth3in;eth3out;eth4in;eth4out
05:05:06;932.54;2731.00;60.95;22.01;61.47;19.96;61.44;22.01
05:05:07;3934.04;4008.04;0.51;0.00;0.00;0.00;4.71;3.73
05:05:08;5558.36;5138.83;0.00;0.00;0.00;0.00;15.82;57.48
05:05:09;6131.60;6210.13;0.00;0.00;0.00;0.00;0.00;0.00
05:05:10;6335.38;6467.41;0.00;0.00;0.00;0.00;0.00;0.00
05:05:11;6458.34;6494.10;0.00;0.00;0.00;0.00;0.00;0.00
05:05:12;6659.10;6670.52;0.00;0.00;0.00;0.00;0.00;0.00
05:05:13;6508.06;6542.15;0.00;0.00;0.00;0.00;0.00;0.00
05:05:14;6495.77;6547.87;0.00;0.00;0.00;0.00;0.00;0.00
05:05:15;6585.42;6572.56;0.00;0.00;0.00;0.00;0.00;0.00
05:05:16;6621.58;6626.55;0.00;0.00;0.00;0.00;0.00;0.00
05:05:17;6568.97;6581.13;0.00;0.00;0.00;0.00;0.00;0.00
05:05:18;6462.50;6486.03;0.00;0.00;0.00;0.00;0.00;0.00
05:05:19;6604.07;6609.78;0.00;0.00;0.00;0.00;0.00;0.00
05:05:20;6681.76;6668.22;0.00;0.00;0.00;0.00;0.00;0.00
05:05:21;6586.62;6576.04;0.00;0.00;0.00;0.00;0.00;0.00
05:05:22;6669.35;6652.89;0.00;0.00;0.00;0.00;0.00;0.00
05:05:23;6652.74;6639.42;0.00;0.00;13238.91;7064.86;7879.32;11915.02
05:05:24;6985.65;6842.85;0.00;0.00;180332.7;109102.7;121195.7;162326.4
05:05:25;6998.32;6842.74;0.00;0.00;189431.8;99899.31;111018.0;170488.6
05:05:26;6971.75;6754.05;0.00;0.00;195863.1;96761.81;107511.7;176276.8
05:05:27;7034.32;6895.88;0.00;0.00;194414.3;96904.46;107675.8;174945.9
05:05:28;6989.45;6855.22;0.00;0.00;194329.2;96824.69;107561.5;174923.2
05:05:29;6974.02;6850.51;0.00;0.00;195231.7;96873.99;107658.4;175681.5
05:05:30;7021.44;6894.40;0.00;0.00;194214.7;97480.48;108302.3;174820.2
05:05:31;7065.71;7006.44;0.00;0.00;186153.3;98184.24;109116.1;167511.0
05:05:32;7042.83;6962.21;0.00;0.00;173769.0;96622.49;107343.8;156392.1
05:05:33;7063.05;7013.78;0.00;0.00;184775.6;98222.53;109117.0;166298.0
05:05:34;7130.04;7086.52;0.00;0.00;175507.5;97409.40;108248.1;157983.7
05:05:35;7179.67;7166.08;0.00;0.00;188289.8;93021.87;103361.8;169433.9
05:05:36;7160.05;7153.94;0.00;0.00;189211.1;99006.68;110023.4;170316.9
05:05:37;7063.09;7042.42;0.00;0.00;192954.7;98200.78;109076.4;173632.2
05:05:38;7111.01;7103.19;0.00;0.00;192914.7;97938.50;108820.6;173650.2
05:05:39;7092.33;7084.45;0.00;0.00;194407.3;97708.35;108584.5;174939.6
05:05:40;7122.72;7120.82;0.00;0.00;191783.7;98116.14;109015.6;172605.3
05:05:41;7118.52;7101.39;0.00;0.00;192205.4;97745.81;108626.6;172984.8
05:05:42;7099.26;7051.44;0.00;0.00;191410.6;98357.20;109272.2;172269.9
05:05:43;7065.73;7010.01;0.00;0.00;190139.0;98748.68;109712.8;171125.1
05:05:44;6672.18;6715.84;0.00;0.00;187220.7;99452.49;110506.0;168498.6
05:05:45;5712.56;6335.33;0.00;0.00;169395.5;95197.59;105786.3;152482.9
05:05:46;5171.33;5897.56;0.00;0.00;74695.05;42823.36;47538.09;67110.80
05:05:47;5829.84;6011.44;0.00;0.00;0.00;0.00;0.00;0.00
05:05:48;3297.49;1626.50;0.00;0.00;0.00;0.00;0.00;0.00
05:05:49;5260.56;4774.18;0.00;0.00;0.00;0.00;0.00;0.00
05:05:50;4686.67;5368.98;0.00;0.00;0.00;0.00;0.00;0.00
05:05:51;6523.77;6522.51;0.00;0.00;0.00;0.00;0.00;0.00
05:05:52;6641.83;6664.72;0.00;0.00;0.00;0.00;0.00;0.00
05:05:53;6655.23;6663.80;0.00;0.00;0.00;0.00;0.00;0.00
05:05:54;6780.06;6774.29;0.00;0.00;0.00;0.00;0.00;0.00
05:05:55;6694.03;6700.42;0.00;0.00;0.00;0.00;0.00;0.00
05:05:56;6760.68;6721.41;0.00;0.00;0.00;0.00;0.00;0.00
05:05:57;6839.77;6856.16;0.00;0.00;0.00;0.00;0.00;0.00
05:05:58;6800.38;6801.07;0.00;0.00;0.00;0.00;0.00;0.00
05:05:59;6803.32;6806.18;0.00;0.00;0.00;0.00;0.00;0.00
05:06:00;6747.54;6763.42;0.00;0.00;0.00;0.00;0.00;0.00
05:06:01;6920.38;6933.23;0.00;0.00;0.00;0.00;0.00;0.00
05:06:02;6828.64;6827.16;0.00;0.00;0.00;0.00;0.00;0.00
05:06:03;6763.38;6766.98;0.00;0.00;0.00;0.00;0.00;0.00
05:06:04;6726.97;6726.97;0.00;0.00;0.00;0.00;0.00;0.00
05:06:05;6630.14;6639.40;0.00;0.00;0.00;0.00;0.00;0.00
05:06:06;6774.10;6812.36;0.00;0.00;0.00;0.00;0.00;0.00
05:06:07;6694.67;6703.99;0.00;0.00;0.00;0.00;0.00;0.00
05:06:08;6716.04;6708.68;0.00;0.00;0.00;0.00;0.00;0.00
05:06:09;6736.12;6736.86;0.00;0.00;0.00;0.00;0.00;0.00
05:06:10;6680.36;6656.67;0.00;0.00;0.00;0.00;0.00;0.00
05:06:11;6708.79;6705.03;0.00;0.00;0.00;0.00;0.00;0.00
05:06:12;6648.85;6651.52;0.00;0.00;0.00;0.00;0.00;0.00
05:06:13;4706.84;4535.05;0.00;0.00;3.68;2.65;0.00;0.00
05:06:14;4299.31;4307.02;1.58;1.58;0.00;0.00;0.00;0.00
05:06:15;2388.60;2166.74;2.10;1.07;0.00;0.00;0.00;0.00
05:06:16;2094.90;2033.52;0.00;0.00;0.00;0.00;0.00;0.00
05:06:17;2041.17;2012.13;0.00;0.00;0.00;0.00;0.00;0.00
